localize,cgame
localize,custom
menufile,ui_mp/promod.txt
menufile,ui_mp/weaponinfo.menu
menufile,ui_mp/scriptmenus/changeclass_marines_mw.menu
menufile,ui_mp/scriptmenus/changeclass_mw.menu
menufile,ui_mp/scriptmenus/changeclass_opfor_mw.menu
menufile,ui_mp/scriptmenus/class.menu
menufile,ui_mp/scriptmenus/demo.menu
menufile,ui_mp/scriptmenus/echo.menu
menufile,ui_mp/scriptmenus/quickpromod.menu
menufile,ui_mp/scriptmenus/quickpromodgfx.menu
menufile,ui_mp/scriptmenus/scoreboard.menu
menufile,ui_mp/scriptmenus/shoutcast.menu
menufile,ui_mp/scriptmenus/shoutcast_map.menu
menufile,ui_mp/scriptmenus/shoutcast_setup.menu
menufile,ui_mp/scriptmenus/shoutcast_setup_binds.menu
menufile,ui_mp/scriptmenus/team_marinesopfor.menu
menufile,ui_mp/scriptmenus/team_marinesopfor_flipped.menu

material,weapon_dsr50
material,hud_dsr50
material,weapon_l96a1
material,hud_l96a1
material,hud_icon_cheytac
material,weapon_cheytac

rawfile,maps/createfx/mp_backlot_fx.gsc
rawfile,maps/createfx/mp_bloc_fx.gsc
rawfile,maps/createfx/mp_bog_fx.gsc
rawfile,maps/createfx/mp_broadcast_fx.gsc
rawfile,maps/createfx/mp_carentan_fx.gsc
rawfile,maps/createfx/mp_cargoship_fx.gsc
rawfile,maps/createfx/mp_citystreets_fx.gsc
rawfile,maps/createfx/mp_convoy_fx.gsc
rawfile,maps/createfx/mp_countdown_fx.gsc
rawfile,maps/createfx/mp_crash_fx.gsc
rawfile,maps/createfx/mp_crash_snow_fx.gsc
rawfile,maps/createfx/mp_creek_fx.gsc
rawfile,maps/createfx/mp_crossfire_fx.gsc
rawfile,maps/createfx/mp_farm_fx.gsc
rawfile,maps/createfx/mp_killhouse_fx.gsc
rawfile,maps/createfx/mp_overgrown_fx.gsc
rawfile,maps/createfx/mp_pipeline_fx.gsc
rawfile,maps/createfx/mp_shipment_fx.gsc
rawfile,maps/createfx/mp_showdown_fx.gsc
rawfile,maps/createfx/mp_strike_fx.gsc
rawfile,maps/createfx/mp_vacant_fx.gsc
rawfile,maps/mp/_destructible.gsc
rawfile,maps/mp/_destructible_types.gsc
rawfile,maps/mp/_explosive_barrels.gsc
rawfile,maps/mp/_flashgrenades.gsc
rawfile,maps/mp/_load.gsc
rawfile,maps/mp/gametypes/dm.gsc
rawfile,maps/mp/gametypes/dom.gsc
rawfile,maps/mp/gametypes/dvars.gsc
rawfile,maps/mp/gametypes/koth.gsc
rawfile,maps/mp/gametypes/sab.gsc
rawfile,maps/mp/gametypes/sd.gsc
rawfile,maps/mp/gametypes/war.gsc
rawfile,maps/mp/gametypes/_attachmodel.gsc
rawfile,maps/mp/gametypes/_bots.gsc
rawfile,maps/mp/gametypes/_class.gsc
rawfile,maps/mp/gametypes/_class.gscdd
rawfile,maps/mp/gametypes/_eb.gsc
rawfile,maps/mp/gametypes/_gameobjects.gsc
rawfile,maps/mp/gametypes/_globallogic.gsc
rawfile,maps/mp/gametypes/_hardpoints.gsc
rawfile,maps/mp/gametypes/_healthoverlay.gsc
rawfile,maps/mp/gametypes/_hud.gsc
rawfile,maps/mp/gametypes/_hud_message.gsc
rawfile,maps/mp/gametypes/_killcam.gsc
rawfile,maps/mp/gametypes/_menus.gsc
rawfile,maps/mp/gametypes/_misc.gsc
rawfile,maps/mp/gametypes/_missions.gsc
rawfile,maps/mp/gametypes/_promod.gsc
rawfile,maps/mp/gametypes/_quickmessages.gsc
rawfile,maps/mp/gametypes/_rank.gsc
rawfile,maps/mp/gametypes/_scoreboard.gsc
rawfile,maps/mp/gametypes/_spawnlogic.gsc
rawfile,maps/mp/gametypes/_spectating.gsc
rawfile,maps/mp/gametypes/_teams.gsc
rawfile,maps/mp/gametypes/_weapons.gsc
rawfile,maps/mp/mp_backlot.gsc
rawfile,maps/mp/mp_bloc.gsc
rawfile,maps/mp/mp_bog.gsc
rawfile,maps/mp/mp_broadcast.gsc
rawfile,maps/mp/mp_carentan.gsc
rawfile,maps/mp/mp_cargoship.gsc
rawfile,maps/mp/mp_citystreets.gsc
rawfile,maps/mp/mp_convoy.gsc
rawfile,maps/mp/mp_countdown.gsc
rawfile,maps/mp/mp_crash.gsc
rawfile,maps/mp/mp_crash_snow.gsc
rawfile,maps/mp/mp_creek.gsc
rawfile,maps/mp/mp_crossfire.gsc
rawfile,maps/mp/mp_farm.gsc
rawfile,maps/mp/mp_killhouse.gsc
rawfile,maps/mp/mp_overgrown.gsc
rawfile,maps/mp/mp_pipeline.gsc
rawfile,maps/mp/mp_shipment.gsc
rawfile,maps/mp/mp_showdown.gsc
rawfile,maps/mp/mp_strike.gsc
rawfile,maps/mp/mp_vacant.gsc
rawfile,mp/playeranim.script
rawfile,promod/client.gsc
rawfile,promod/comp.gsc
rawfile,promod/dvarmon.gsc
rawfile,promod/messagecenter.gsc
rawfile,promod/modes.gsc
rawfile,promod/readyup.gsc
rawfile,promod/scorebot.gsc
rawfile,promod/servercheck.gsc
rawfile,promod/setvariables.gsc
rawfile,promod/shoutcast.gsc
rawfile,promod/stratmode.gsc
rawfile,promod/strattime.gsc
rawfile,promod/timeout.gsc
rawfile,promod_ruleset/custom_public.gsc
rawfile,shock/damage_mp.shock
rawfile,mp/statstable.csv

sound,promod,,all_mp
sound,dsr50,,all_mp
sound,l96a1,,all_mp
sound,cheytac,,all_mp

stringtable,mp/statstable.csv
stringtable,promod/customStatsTable.csv
stringtable,promod/destructible.csv

xmodel,viewmodel_bo2_dsr50
xmodel,worldmodel_bo2_dsr50
xmodel,com_floodlight_on
xmodel,l96a1_wm
xmodel,l96a1_vm
xmodel,l96a1_gold_wm
xmodel,l96a1_gold_vm
xmodel,viewhands_mwr_arab
xmodel,viewhands_mwr_spetsnaz
xmodel,viewhands_mwr_sas
xmodel,viewhands_mwr_usmc

weapon,mp/dsr50_mp
weapon,mp/deserteagle_mp
weapon,mp/l96a1_mp
weapon,mp/deserteagle_flip_mp
weapon,mp/deserteaglegold_flip_mp
weapon,mp/cheytac_mp

#CHARACTERS
rawfile,character/character_mp_usmc_assault.gsc
rawfile,character/character_mp_usmc_support.gsc
rawfile,character/character_mp_usmc_recon.gsc
rawfile,character/character_mp_usmc_sniper.gsc
rawfile,character/character_mp_usmc_specops.gsc
rawfile,character/character_mp_arab_regular_support.gsc
rawfile,character/character_mp_arab_regular_assault.gsc
rawfile,character/character_mp_arab_regular_cqb.gsc
rawfile,character/character_mp_arab_regular_engineer.gsc
rawfile,character/character_mp_arab_regular_sniper.gsc
rawfile,character/character_mp_sas_urban_assault.gsc
rawfile,character/character_mp_sas_urban_support.gsc
rawfile,character/character_mp_sas_urban_specops.gsc
rawfile,character/character_mp_sas_urban_sniper.gsc
rawfile,character/character_mp_sas_urban_recon.gsc
rawfile,character/character_mp_opforce_urban_assault.gsc
rawfile,character/character_mp_opforce_urban_support.gsc
rawfile,character/character_mp_opforce_urban_sniper.gsc
rawfile,character/character_mp_opforce_urban_engineer.gsc
rawfile,character/character_mp_opforce_urban_cqb.gsc


